Introduction
…
## Rows: 35933 Columns: 13

## ── Column specification ────────────────────────────────────────────────────────
## Delimiter: ","
## chr (6): GHO, PUBLISHSTATE, REGION, COUNTRY, SEX, Display Value
## dbl (4): YEAR, Numeric, Low, High
## lgl (3): StdErr, StdDev, Comments

## 
## ℹ Use `spec()` to retrieve the full column specification for this data.
## ℹ Specify the column types or set `show_col_types = FALSE` to quiet this message.

print(result, width = Inf)

## # A tibble: 35,933 × 13
##    GHO            PUBLISHSTATE  YEAR REGION COUNTRY SEX   `Display Value`    
##    <chr>          <chr>        <dbl> <chr>  <chr>   <chr> <chr>              
##  1 MDG_0000000001 PUBLISHED     2013 AFR    <NA>    BTSX  58.78 [56.58-61.51]
##  2 MDG_0000000001 PUBLISHED     2013 AFR    <NA>    MLE   64.26 [61.82-67.33]
##  3 MDG_0000000001 PUBLISHED     2015 AFR    <NA>    FMLE  50.54 [48.23-53.76]
##  4 MDG_0000000001 PUBLISHED     2016 AFR    <NA>    BTSX  54.69 [51.92-58.55]
##  5 MDG_0000000001 PUBLISHED     2018 AFR    <NA>    FMLE  46.83 [43.92-51.27]
##  6 MDG_0000000001 PUBLISHED     2019 AFR    <NA>    BTSX  50.72 [47.34-56.09]
##  7 MDG_0000000001 PUBLISHED     1990 AMR    <NA>    FMLE  30.71 [29.85-31.65]
##  8 MDG_0000000001 PUBLISHED     1991 AMR    <NA>    BTSX  32.94 [32.16-33.76]
##  9 MDG_0000000001 PUBLISHED     1992 AMR    <NA>    MLE   34.74 [33.83-35.72]
## 10 MDG_0000000001 PUBLISHED     1993 AMR    <NA>    FMLE  27.12 [26.37-27.93]
##    Numeric   Low  High StdErr StdDev Comments
##      <dbl> <dbl> <dbl> <lgl>  <lgl>  <lgl>   
##  1    58.8  56.6  61.5 NA     NA     NA      
##  2    64.3  61.8  67.3 NA     NA     NA      
##  3    50.5  48.2  53.8 NA     NA     NA      
##  4    54.7  51.9  58.5 NA     NA     NA      
##  5    46.8  43.9  51.3 NA     NA     NA      
##  6    50.7  47.3  56.1 NA     NA     NA      
##  7    30.7  29.8  31.7 NA     NA     NA      
##  8    32.9  32.2  33.8 NA     NA     NA      
##  9    34.7  33.8  35.7 NA     NA     NA      
## 10    27.1  26.4  27.9 NA     NA     NA      
## # … with 35,923 more rows
…
## Rows: 162 Columns: 13

## ── Column specification ────────────────────────────────────────────────────────
## Delimiter: ","
## chr (6): GHO, PUBLISHSTATE, REGION, COUNTRY, SEX, Display Value
## dbl (4): YEAR, Numeric, Low, High
## lgl (3): StdErr, StdDev, Comments

## 
## ℹ Use `spec()` to retrieve the full column specification for this data.
## ℹ Specify the column types or set `show_col_types = FALSE` to quiet this message.

print(result, width = Inf)

## # A tibble: 162 × 13
##    GHO            PUBLISHSTATE  YEAR REGION COUNTRY SEX   `Display Value`    
##    <chr>          <chr>        <dbl> <chr>  <chr>   <chr> <chr>              
##  1 MDG_0000000001 PUBLISHED     2015 EUR    <NA>    BTSX  8.0 [7.76-8.28]    
##  2 MDG_0000000001 PUBLISHED     2015 EUR    <NA>    FMLE  7.11 [6.89-7.37]   
##  3 MDG_0000000001 PUBLISHED     2015 EUR    <NA>    MLE   8.85 [8.57-9.17]   
##  4 MDG_0000000001 PUBLISHED     2015 EUR    ALB     BTSX  8.5 [8.19-8.83]    
##  5 MDG_0000000001 PUBLISHED     2015 EUR    ALB     FMLE  7.57 [7.21-7.95]   
##  6 MDG_0000000001 PUBLISHED     2015 EUR    ALB     MLE   9.39 [8.98-9.8]    
##  7 MDG_0000000001 PUBLISHED     2015 EUR    AND     BTSX  3.11 [2.24-4.32]   
##  8 MDG_0000000001 PUBLISHED     2015 EUR    AND     FMLE  2.77 [1.98-3.88]   
##  9 MDG_0000000001 PUBLISHED     2015 EUR    AND     MLE   3.42 [2.45-4.78]   
## 10 MDG_0000000001 PUBLISHED     2015 EUR    ARM     BTSX  12.59 [10.29-15.01]
##    Numeric   Low  High StdErr StdDev Comments
##      <dbl> <dbl> <dbl> <lgl>  <lgl>  <lgl>   
##  1    8.00  7.76  8.28 NA     NA     NA      
##  2    7.11  6.89  7.37 NA     NA     NA      
##  3    8.85  8.57  9.17 NA     NA     NA      
##  4    8.50  8.19  8.83 NA     NA     NA      
##  5    7.57  7.21  7.95 NA     NA     NA      
##  6    9.39  8.98  9.80 NA     NA     NA      
##  7    3.11  2.24  4.32 NA     NA     NA      
##  8    2.77  1.98  3.88 NA     NA     NA      
##  9    3.42  2.45  4.78 NA     NA     NA      
## 10   12.6  10.3  15.0  NA     NA     NA      
## # … with 152 more rows
…
